%YAML 1.1
%TAG !u! tag:unity3d.com,2011:
--- !u!1001 &4950952453706850172
PrefabInstance:
  m_ObjectHideFlags: 0
  serializedVersion: 2
  m_Modification:
    m_TransformParent: {fileID: 0}
    m_Modifications:
    - target: {fileID: 373410637387636656, guid: d7c3cba9aaf93c942ae871045e0a3292,
        type: 3}
      propertyPath: m_LocalPosition.x
      value: 0
      objectReference: {fileID: 0}
    - target: {fileID: 373410637387636656, guid: d7c3cba9aaf93c942ae871045e0a3292,
        type: 3}
      propertyPath: m_LocalPosition.y
      value: 0
      objectReference: {fileID: 0}
    - target: {fileID: 373410637387636656, guid: d7c3cba9aaf93c942ae871045e0a3292,
        type: 3}
      propertyPath: m_LocalPosition.z
      value: 0
      objectReference: {fileID: 0}
    - target: {fileID: 373410637387636656, guid: d7c3cba9aaf93c942ae871045e0a3292,
        type: 3}
      propertyPath: m_LocalRotation.x
      value: 0
      objectReference: {fileID: 0}
    - target: {fileID: 373410637387636656, guid: d7c3cba9aaf93c942ae871045e0a3292,
        type: 3}
      propertyPath: m_LocalRotation.y
      value: 0
      objectReference: {fileID: 0}
    - target: {fileID: 373410637387636656, guid: d7c3cba9aaf93c942ae871045e0a3292,
        type: 3}
      propertyPath: m_LocalRotation.z
      value: 0
      objectReference: {fileID: 0}
    - target: {fileID: 373410637387636656, guid: d7c3cba9aaf93c942ae871045e0a3292,
        type: 3}
      propertyPath: m_LocalRotation.w
      value: 1
      objectReference: {fileID: 0}
    - target: {fileID: 373410637387636656, guid: d7c3cba9aaf93c942ae871045e0a3292,
        type: 3}
      propertyPath: m_RootOrder
      value: 0
      objectReference: {fileID: 0}
    - target: {fileID: 373410637387636656, guid: d7c3cba9aaf93c942ae871045e0a3292,
        type: 3}
      propertyPath: m_LocalEulerAnglesHint.x
      value: 0
      objectReference: {fileID: 0}
    - target: {fileID: 373410637387636656, guid: d7c3cba9aaf93c942ae871045e0a3292,
        type: 3}
      propertyPath: m_LocalEulerAnglesHint.y
      value: 0
      objectReference: {fileID: 0}
    - target: {fileID: 373410637387636656, guid: d7c3cba9aaf93c942ae871045e0a3292,
        type: 3}
      propertyPath: m_LocalEulerAnglesHint.z
      value: 0
      objectReference: {fileID: 0}
    - target: {fileID: 373410637387636656, guid: d7c3cba9aaf93c942ae871045e0a3292,
        type: 3}
      propertyPath: m_AnchoredPosition.x
      value: 72.8
      objectReference: {fileID: 0}
    - target: {fileID: 373410637387636656, guid: d7c3cba9aaf93c942ae871045e0a3292,
        type: 3}
      propertyPath: m_AnchoredPosition.y
      value: -77.5
      objectReference: {fileID: 0}
    - target: {fileID: 373410637387636656, guid: d7c3cba9aaf93c942ae871045e0a3292,
        type: 3}
      propertyPath: m_SizeDelta.x
      value: 100
      objectReference: {fileID: 0}
    - target: {fileID: 373410637387636656, guid: d7c3cba9aaf93c942ae871045e0a3292,
        type: 3}
      propertyPath: m_SizeDelta.y
      value: 50
      objectReference: {fileID: 0}
    - target: {fileID: 373410637387636656, guid: d7c3cba9aaf93c942ae871045e0a3292,
        type: 3}
      propertyPath: m_AnchorMin.x
      value: 0.5
      objectReference: {fileID: 0}
    - target: {fileID: 373410637387636656, guid: d7c3cba9aaf93c942ae871045e0a3292,
        type: 3}
      propertyPath: m_AnchorMin.y
      value: 0.5
      objectReference: {fileID: 0}
    - target: {fileID: 373410637387636656, guid: d7c3cba9aaf93c942ae871045e0a3292,
        type: 3}
      propertyPath: m_AnchorMax.x
      value: 0.5
      objectReference: {fileID: 0}
    - target: {fileID: 373410637387636656, guid: d7c3cba9aaf93c942ae871045e0a3292,
        type: 3}
      propertyPath: m_AnchorMax.y
      value: 0.5
      objectReference: {fileID: 0}
    - target: {fileID: 373410637387636656, guid: d7c3cba9aaf93c942ae871045e0a3292,
        type: 3}
      propertyPath: m_Pivot.x
      value: 0.5
      objectReference: {fileID: 0}
    - target: {fileID: 373410637387636656, guid: d7c3cba9aaf93c942ae871045e0a3292,
        type: 3}
      propertyPath: m_Pivot.y
      value: 0.5
      objectReference: {fileID: 0}
    - target: {fileID: 1410597949869375756, guid: d7c3cba9aaf93c942ae871045e0a3292,
        type: 3}
      propertyPath: canPointToOthers
      value: 0
      objectReference: {fileID: 0}
    - target: {fileID: 1410597949869375756, guid: d7c3cba9aaf93c942ae871045e0a3292,
        type: 3}
      propertyPath: canBePointedTo
      value: 0
      objectReference: {fileID: 0}
    - target: {fileID: 1410597949869375756, guid: d7c3cba9aaf93c942ae871045e0a3292,
        type: 3}
      propertyPath: startNodeName
      value: New Project
      objectReference: {fileID: 0}
    - target: {fileID: 1410597949869375756, guid: d7c3cba9aaf93c942ae871045e0a3292,
        type: 3}
      propertyPath: createDefaultStartEndNodes
      value: 1
      objectReference: {fileID: 0}
    - target: {fileID: 1410597949869375756, guid: d7c3cba9aaf93c942ae871045e0a3292,
        type: 3}
      propertyPath: defaultStartNodeName
      value: Project Start
      objectReference: {fileID: 0}
    - target: {fileID: 1410597949869375756, guid: d7c3cba9aaf93c942ae871045e0a3292,
        type: 3}
      propertyPath: defaultEndNodeName
      value: Project End
      objectReference: {fileID: 0}
    - target: {fileID: 2621441282738644812, guid: d7c3cba9aaf93c942ae871045e0a3292,
        type: 3}
      propertyPath: standardNodeObj
      value: 
      objectReference: {fileID: 1410597949869375756, guid: d7c3cba9aaf93c942ae871045e0a3292,
        type: 3}
    - target: {fileID: 3454744702658728647, guid: d7c3cba9aaf93c942ae871045e0a3292,
        type: 3}
      propertyPath: m_Name
      value: ProjectNode
      objectReference: {fileID: 0}
    m_RemovedComponents: []
  m_SourcePrefab: {fileID: 100100000, guid: d7c3cba9aaf93c942ae871045e0a3292, type: 3}
